%YAML 1.1
%TAG !u! tag:unity3d.com,2011:
--- !u!114 &11400000
MonoBehaviour:
  m_ObjectHideFlags: 0
  m_CorrespondingSourceObject: {fileID: 0}
  m_PrefabInstance: {fileID: 0}
  m_PrefabAsset: {fileID: 0}
  m_GameObject: {fileID: 0}
  m_Enabled: 1
  m_EditorHideFlags: 0
  m_Script: {fileID: 11500000, guid: bf2edee5c58d82540a51f03df9d42094, type: 3}
  m_Name: LightweightRenderPipelineAsset
  m_EditorClassIdentifier: 
  k_AssetVersion: 4
  m_RendererType: 1
  m_RendererData: {fileID: 11400000, guid: 618d298269e66c542b306de85db1faea, type: 2}
  m_RequireDepthTexture: 1
  m_RequireOpaqueTexture: 0
  m_OpaqueDownsampling: 1
  m_SupportsHDR: 0
  m_MSAA: 1
  m_RenderScale: 1
  m_MainLightRenderingMode: 1
  m_MainLightShadowsSupported: 1
  m_MainLightShadowmapResolution: 256
  m_AdditionalLightsRenderingMode: 1
  m_AdditionalLightsPerObjectLimit: 4
  m_AdditionalLightShadowsSupported: 0
  m_AdditionalLightsShadowmapResolution: 4096
  m_ShadowDistance: 50
  m_ShadowCascades: 0
  m_Cascade2Split: 0.25
  m_Cascade4Split: {x: 0.067, y: 0.2, z: 0.467}
  m_ShadowDepthBias: 2
  m_ShadowNormalBias: 1
  m_SoftShadowsSupported: 1
  m_UseSRPBatcher: 1
  m_SupportsDynamicBatching: 0
  m_MixedLightingSupported: 1
  m_ShadowType: 1
  m_LocalShadowsSupported: 0
  m_LocalShadowsAtlasResolution: 256
  m_MaxPixelLights: 0
  m_ShadowAtlasResolution: 256
  m_ShaderVariantLogLevel: 0
