%YAML 1.1
%TAG !u! tag:unity3d.com,2011:
--- !u!21 &2100000
Material:
  serializedVersion: 6
  m_ObjectHideFlags: 0
  m_CorrespondingSourceObject: {fileID: 0}
  m_PrefabInstance: {fileID: 0}
  m_PrefabAsset: {fileID: 0}
  m_Name: Trail_AdditiveScroll_01
  m_Shader: {fileID: 4800000, guid: e6b0fc6d9f3e0b94eae8d564377561c7, type: 3}
  m_ShaderKeywords: 
  m_LightmapFlags: 4
  m_EnableInstancingVariants: 0
  m_DoubleSidedGI: 0
  m_CustomRenderQueue: -1
  stringTagMap: {}
  disabledShaderPasses: []
  m_SavedProperties:
    serializedVersion: 3
    m_TexEnvs:
    - _MainTexture1:
        m_Texture: {fileID: 2800000, guid: 387e803ab3cc72540bd23f6ee65d1796, type: 3}
        m_Scale: {x: 1, y: 1}
        m_Offset: {x: 0, y: 0}
    m_Floats:
    - _DistortionAmount: 0.05
    - _NoiseScale: 0
    m_Colors:
    - _MainColor: {r: 2.996078, g: 2.996078, b: 2.996078, a: 0.3921569}
    - _MainSpeed: {r: -1, g: 0, b: 0, a: 0}
    - _NoiseSpeed: {r: -0.6, g: 0, b: 0, a: 0}
